…
-   Bouild `HOBO snow` object:

-   `hobo_sumamry()`

``` r
pbm %>% 
  hobo_summary()
#> # A tibble: 1,360 x 9
#>     year month   day hobolocation  longdate   mean_temp min_temp max_temp  range
#>    <int> <int> <int> <chr>         <date>         <dbl>    <dbl>    <dbl>  <dbl>
#>  1  2010     8     8 temperature_~ 2010-08-08      13.7     13.7     13.7  0    
#>  2  2010     8     8 temperature_~ 2010-08-08      15.2     14.5     16    1.53 
#>  3  2010     8     8 temperature_~ 2010-08-08     290.     290.     290.   0    
#>  4  2010     8     8 temperature_~ 2010-08-08      12.5     12.2     12.9  0.770
#>  5  2010     8     9 temperature_~ 2010-08-09      14.5     13.3     16    2.68 
#>  6  2010     8     9 temperature_~ 2010-08-09      14.8     11.4     20.2  8.81 
#>  7  2010     8     9 temperature_~ 2010-08-09     290.     290.     290.   0    
#>  8  2010     8     9 temperature_~ 2010-08-09      12.0     10.6     14.5  3.87 
#>  9  2010     8    10 temperature_~ 2010-08-10      14.4     12.9     16    3.07 
#> 10  2010     8    10 temperature_~ 2010-08-10      14.7     10.6     21.0 10.4  
#> # ... with 1,350 more rows
```

\+`snow_pack()`

``` r
pbm %>% 
  hobo_summary() %>% 
  snow_pack("temperature_c_1", range, 5)
#> # A tibble: 213 x 9
#>     year month   day hobolocation   longdate   mean_temp min_temp max_temp range
#>    <int> <int> <int> <chr>          <date>         <dbl>    <dbl>    <dbl> <dbl>
#>  1  2010    10     4 temperature_c~ 2010-10-04      14.9     13.7     15.2 1.53 
#>  2  2010    10     5 temperature_c~ 2010-10-05      14.9     14.1     15.6 1.53 
#>  3  2010    10     6 temperature_c~ 2010-10-06      15.1     14.8     15.2 0.38 
#>  4  2010    10     7 temperature_c~ 2010-10-07      15.2     14.8     15.6 0.770
#>  5  2010    10    12 temperature_c~ 2010-10-12      16.0     15.6     16.4 0.760
#>  6  2010    10    13 temperature_c~ 2010-10-13      15.7     15.2     16.4 1.15 
#>  7  2010    10    14 temperature_c~ 2010-10-14      15.7     14.8     16.4 1.53 
#>  8  2010    10    15 temperature_c~ 2010-10-15      15.7     14.8     16.4 1.53 
#>  9  2010    10    22 temperature_c~ 2010-10-22      15.5     15.2     15.6 0.390
#> 10  2010    10    23 temperature_c~ 2010-10-23      15.6     15.6     15.6 0    
#> # ... with 203 more rows
```
…
